…
## Selecting Columns & Filtering Rows

To select columns, we use `select()`. The first argument is the dataset,
and the succeeding arguments are the columns to be included.

*Use case: Suppose we want to get the family, order, and class of each
phage in our dataset.*

``` r
data_subset <- select(data, Accession, Family, Order, Class)
data_subset
```

    ## # A tibble: 18,406 × 4
    ##    Accession Family       Order        Class         
    ##    <chr>     <chr>        <chr>        <chr>         
    ##  1 LR756511  Unclassified Unclassified Unclassified  
    ##  2 LR756508  Unclassified Unclassified Unclassified  
    ##  3 LR756504  Unclassified Unclassified Unclassified  
    ##  4 LR756503  Unclassified Unclassified Unclassified  
    ##  5 LR756502  Unclassified Unclassified Unclassified  
    ##  6 LR756501  Unclassified Unclassified Unclassified  
    ##  7 LR756500  Unclassified Unclassified Unclassified  
    ##  8 LR745208  Unclassified Unclassified Unclassified  
    ##  9 LR745206  Unclassified Unclassified Unclassified  
    ## 10 MK250029  Myoviridae   Unclassified Caudoviricetes
    ## # ℹ 18,396 more rows

To filter rows, we use `filter()`.

*Use case: Suppose we want to remove all entries where the family,
order, and class are unclassified.*

``` r
data_subset <- filter(data_subset, Family != "Unclassified" & Order != "Unclassified" & Class != "Unclassified")
data_subset
```

    ## # A tibble: 3,078 × 4
    ##    Accession Family          Order         Class             
    ##    <chr>     <chr>           <chr>         <chr>             
    ##  1 OM621814  Pleolipoviridae Haloruvirales Huolimaviricetes  
    ##  2 OM869715  Microviridae    Petitvirales  Malgrandaviricetes
    ##  3 OM869714  Microviridae    Petitvirales  Malgrandaviricetes
    ##  4 OM869713  Microviridae    Petitvirales  Malgrandaviricetes
    ##  5 OM869712  Microviridae    Petitvirales  Malgrandaviricetes
    ##  6 OM869711  Microviridae    Petitvirales  Malgrandaviricetes
    ##  7 OM869710  Microviridae    Petitvirales  Malgrandaviricetes
    ##  8 OM869709  Microviridae    Petitvirales  Malgrandaviricetes
    ##  9 OM869708  Microviridae    Petitvirales  Malgrandaviricetes
    ## 10 OM869707  Microviridae    Petitvirales  Malgrandaviricetes
    ## # ℹ 3,068 more rows
…
Fortunately, `dplyr` provides a convenient operator called a pipe: `%>%`
(a shortcut to typing this operator is by pressing Ctrl+Shift+M or
Cmd+Shift+M for Mac). We can think of `%>%` as equivalent to the English
“then.”

To illustrate its usage, we rewrite our pipeline like so:

``` r
data_subset_using_pipe <- data %>% 
  select(Accession, Family, Order, Class) %>% 
  filter(Family != "Unclassified" & Order != "Unclassified" & Class != "Unclassified")
data_subset_using_pipe
```

    ## # A tibble: 3,078 × 4
    ##    Accession Family          Order         Class             
    ##    <chr>     <chr>           <chr>         <chr>             
    ##  1 OM621814  Pleolipoviridae Haloruvirales Huolimaviricetes  
    ##  2 OM869715  Microviridae    Petitvirales  Malgrandaviricetes
    ##  3 OM869714  Microviridae    Petitvirales  Malgrandaviricetes
    ##  4 OM869713  Microviridae    Petitvirales  Malgrandaviricetes
    ##  5 OM869712  Microviridae    Petitvirales  Malgrandaviricetes
    ##  6 OM869711  Microviridae    Petitvirales  Malgrandaviricetes
    ##  7 OM869710  Microviridae    Petitvirales  Malgrandaviricetes
    ##  8 OM869709  Microviridae    Petitvirales  Malgrandaviricetes
    ##  9 OM869708  Microviridae    Petitvirales  Malgrandaviricetes
    ## 10 OM869707  Microviridae    Petitvirales  Malgrandaviricetes
    ## # ℹ 3,068 more rows
…
To add columns, we use `mutate()`.

*Use case: We have a column called `Genome Length (bp)` but we want a
new column where the genome length is expressed in terms of kbp.*

``` r
# We enclose column names with spaces in backticks ``

data_with_new_column <- data %>%
    mutate(`Genome Length (kbp)` = `Genome Length (bp)` / 1000)
data_with_new_column
```

    ## # A tibble: 18,406 × 28
    ##    Accession Description          Classification `Genome Length (bp)` Jumbophage
    ##    <chr>     <chr>                <chr>                         <dbl> <lgl>     
    ##  1 LR756511  uncultured phage     uncultured ph…               595163 TRUE      
    ##  2 LR756508  uncultured phage     uncultured ph…               484177 TRUE      
    ##  3 LR756504  uncultured phage     uncultured ph…               636363 TRUE      
    ##  4 LR756503  uncultured phage     uncultured ph…               735411 TRUE      
    ##  5 LR756502  uncultured phage     uncultured ph…               642428 TRUE      
    ##  6 LR756501  uncultured phage     uncultured ph…               735411 TRUE      
    ##  7 LR756500  uncultured phage     uncultured ph…               462018 TRUE      
    ##  8 LR745208  uncultured phage     uncultured ph…               485034 TRUE      
    ##  9 LR745206  uncultured phage     uncultured ph…               634780 TRUE      
    ## 10 MK250029  Prevotella phage La… Prevotella ph…               540217 TRUE      
    ## # ℹ 18,396 more rows
    ## # ℹ 23 more variables: `molGC (%)` <dbl>, Molecule <chr>,
    ## #   `Modification Date` <chr>, `Number CDS` <dbl>, `Positive Strand (%)` <dbl>,
    ## #   `Negative Strand (%)` <dbl>, `Coding Capacity(%)` <dbl>,
    ## #   `Low Coding Capacity Warning` <chr>, tRNAs <dbl>, Host <chr>,
    ## #   `Lowest Taxa` <chr>, Genus <chr>, `Sub-family` <chr>, Family <chr>,
    ## #   Order <chr>, Class <chr>, Phylum <chr>, Kingdom <chr>, Realm <chr>, …

## Getting a Column (Pull)

Suppose we want to get all the accessions of the phages in our dataset.

As we learned earlier, we can use `select()`.

``` r
data %>% select(Accession)
```

    ## # A tibble: 18,406 × 1
    ##    Accession
    ##    <chr>    
    ##  1 LR756511 
    ##  2 LR756508 
    ##  3 LR756504 
    ##  4 LR756503 
    ##  5 LR756502 
    ##  6 LR756501 
    ##  7 LR756500 
    ##  8 LR745208 
    ##  9 LR745206 
    ## 10 MK250029 
    ## # ℹ 18,396 more rows
…
Suppose we want to get the number of phages infecting each host genus.
This is a good use case for `group_by()` and `n()` (for counting the
number of entries in a group):

``` r
data %>% 
  select(Accession, Host) %>% 
  filter(Host != "Unspecified") %>%
  group_by(Host) %>% 
  summarize(count = n()) %>%
  arrange(desc(count))           # desc() means arrange in descending order
```

    ## # A tibble: 281 × 2
    ##    Host           count
    ##    <chr>          <int>
    ##  1 Mycobacterium   2195
    ##  2 Escherichia     1608
    ##  3 Vibrio           847
    ##  4 Pseudomonas      822
    ##  5 Salmonella       738
    ##  6 Streptococcus    730
    ##  7 Klebsiella       628
    ##  8 Gordonia         578
    ##  9 Staphylococcus   501
    ## 10 Enterobacteria   498
    ## # ℹ 271 more rows
…
``` r
# We enclose column names with spaces in backticks ``

data %>% 
  select(Accession, Host, `molGC (%)`) %>% 
  filter(Host != "Unspecified") %>%
  group_by(Host) %>% 
  summarize(mean_gc = mean(`molGC (%)`),
            median_gc = median(`molGC (%)`)) %>%
  arrange(desc(mean_gc))           # desc() means arrange in descending order
```

    ## # A tibble: 281 × 3
    ##    Host              mean_gc median_gc
    ##    <chr>               <dbl>     <dbl>
    ##  1 Micromonospora       71.5      71.5
    ##  2 Actinoplanes         70.4      70.4
    ##  3 Myxococcus           68.9      68.9
    ##  4 Skermania            67.8      67.8
    ##  5 Janthinobacterium    67.8      67.8
    ##  6 Pseudarthrobacter    67.5      67.5
    ##  7 Thiobacimonas        66.7      66.7
    ##  8 Aurantimonas         66.7      66.7
    ##  9 Saccharomonospora    65.9      65.9
    ## 10 Acidithiobacillus    65.5      65.5
    ## # ℹ 271 more rows
